^C:\USERS\USER\SOURCE\REPOS\ИНИЦИАЛИЗАЦИЯ\ИНИЦИАЛИЗАЦИЯ.CPP
C:\USERS\USER\SOURCE\REPOS\инициализация\DEBUG\VC142.PDB
C:\USERS\USER\SOURCE\REPOS\инициализация\DEBUG\VC142.IDB
C:\USERS\USER\SOURCE\REPOS\инициализация\DEBUG\инициализация.OBJ
